(0008,0050) SH  00005
(0008,0005) CS  [ISO_IR 100]
(0010,0010) PN  FERRARI^ERMANDO
(0010,0020) LO  HF
(0010,0030) DA  19670910
(0010,0040) CS  M
(0010,2000) LO  ABZESS
(0010,2110) LO  THORIUM
(0020,000d) UI  1.2.276.0.7230010.3.2.302
(0032,1032) PN  NEWMAN
(0032,1060) LO  EXAM8759
(0040,0100) SQ
(fffe,e000) -
(0008,0060) CS  CR
(0032,1070) LO
(0040,0001) AE  AB45\DD56
(0040,0002) DA  19951206
(0040,0003) TM  094500
(0040,0006) PN  COOPER
(0040,0007) LO  EXAM567
(0040,0009) SH  SPD1234
(0040,0010) SH  STN8903
(0040,0011) SH  B95F66
(0040,0012) LO
(0040,0400) LT
(fffe,e00d) -
(fffe,e0dd) -
(0040,1001) SH  RP4734734
(0040,1003) SH  LOW
